<define-tag pagetitle>DLA-1179-1 shibboleth-sp2</define-tag>
<define-tag report_date>2017-11-18</define-tag>
<define-tag secrefs>CVE-2017-16852 Bug#881857</define-tag>
<define-tag packages>shibboleth-sp2</define-tag>
<define-tag isvulnerable>yes</define-tag>
<define-tag fixed>yes</define-tag>
<define-tag fixed-section>no</define-tag>

#use wml::debian::security

