<define-tag pagetitle>DLA-1379-1 curl</define-tag>
<define-tag report_date>2018-5-16</define-tag>
<define-tag secrefs>CVE-2018-1000301 Bug##898856</define-tag>
<define-tag packages>curl</define-tag>
<define-tag isvulnerable>yes</define-tag>
<define-tag fixed>yes</define-tag>
<define-tag fixed-section>no</define-tag>

#use wml::debian::security

