<define-tag pagetitle>DSA-4532-1 spip</define-tag>
<define-tag report_date>2019-9-25</define-tag>
<define-tag secrefs>CVE-2019-16391 CVE-2019-16392 CVE-2019-16393 CVE-2019-16394</define-tag>
<define-tag packages>spip</define-tag>
<define-tag isvulnerable>yes</define-tag>
<define-tag fixed>yes</define-tag>
<define-tag fixed-section>no</define-tag>

#use wml::debian::security



</dl>
